# 0 "branch.c"
# 0 "<built-in>"
# 0 "<command-line>"
# 1 "/usr/include/stdc-predef.h" 1 3 4
# 0 "<command-line>" 2
# 1 "branch.c"
int res = 10;

int func(int longueur)
{

 for(int i=0; i<longueur; i++)
 {
  res +=i;
 }
 return res;
}
